Sistemas Digitais I/simulation/qsim/Projeto2.msim.vcd
$comment
	File created using the following command:
		vcd file Projeto2.msim.vcd -direction
$end
$date
	Fri May 16 11:11:20 2025
$end
$version
	ModelSim Version 10.5b
$end
$timescale
	1ps
$end

$scope module Sistema_vlg_vec_tst $end
$var reg 1 ! X0 $end
$var reg 1 " X1 $end
$var reg 1 # X2 $end
$var wire 1 $ F0 $end
$var wire 1 % F1 $end
$var wire 1 & F2 $end
$var wire 1 ' F3 $end
$var wire 1 ( F4 $end
$var wire 1 ) H00 $end
$var wire 1 * H01 $end
$var wire 1 + H02 $end
$var wire 1 , H03 $end
$var wire 1 - H04 $end
$var wire 1 . H05 $end
$var wire 1 / H06 $end
$var wire 1 0 H10 $end
$var wire 1 1 H11 $end
$var wire 1 2 H12 $end
$var wire 1 3 H13 $end
$var wire 1 4 H14 $end
$var wire 1 5 H15 $end
$var wire 1 6 H16 $end
$var wire 1 7 H20 $end
$var wire 1 8 H21 $end
$var wire 1 9 H22 $end
$var wire 1 : H23 $end
$var wire 1 ; H24 $end
$var wire 1 < H25 $end
$var wire 1 = H26 $end
$var wire 1 > H36 $end
$var wire 1 ? LD1 $end
$var wire 1 @ LD2 $end
$var wire 1 A LD3 $end
$var wire 1 B LD4 $end
$var wire 1 C LD5 $end
$var wire 1 D LD6 $end
$var wire 1 E LD7 $end
$var wire 1 F LD8 $end
$var wire 1 G N1 $end
$var wire 1 H N2 $end
$var wire 1 I N3 $end
$var wire 1 J N4 $end

$scope module i1 $end
$var wire 1 K gnd $end
$var wire 1 L vcc $end
$var wire 1 M unknown $end
$var tri1 1 N devclrn $end
$var tri1 1 O devpor $end
$var tri1 1 P devoe $end
$var wire 1 Q LD1~output_o $end
$var wire 1 R LD2~output_o $end
$var wire 1 S LD3~output_o $end
$var wire 1 T LD4~output_o $end
$var wire 1 U LD5~output_o $end
$var wire 1 V LD6~output_o $end
$var wire 1 W LD7~output_o $end
$var wire 1 X LD8~output_o $end
$var wire 1 Y H06~output_o $end
$var wire 1 Z H05~output_o $end
$var wire 1 [ H04~output_o $end
$var wire 1 \ H03~output_o $end
$var wire 1 ] H02~output_o $end
$var wire 1 ^ H01~output_o $end
$var wire 1 _ H00~output_o $end
$var wire 1 ` H26~output_o $end
$var wire 1 a H25~output_o $end
$var wire 1 b H24~output_o $end
$var wire 1 c H23~output_o $end
$var wire 1 d H22~output_o $end
$var wire 1 e H21~output_o $end
$var wire 1 f H20~output_o $end
$var wire 1 g H16~output_o $end
$var wire 1 h H15~output_o $end
$var wire 1 i H14~output_o $end
$var wire 1 j H13~output_o $end
$var wire 1 k H12~output_o $end
$var wire 1 l H11~output_o $end
$var wire 1 m H10~output_o $end
$var wire 1 n H36~output_o $end
$var wire 1 o N1~output_o $end
$var wire 1 p N2~output_o $end
$var wire 1 q N3~output_o $end
$var wire 1 r N4~output_o $end
$var wire 1 s F4~output_o $end
$var wire 1 t F3~output_o $end
$var wire 1 u F2~output_o $end
$var wire 1 v F1~output_o $end
$var wire 1 w F0~output_o $end
$var wire 1 x X2~input_o $end
$var wire 1 y X0~input_o $end
$var wire 1 z X1~input_o $end
$var wire 1 { inst6|inst5~0_combout $end
$var wire 1 | inst5|inst22~0_combout $end
$var wire 1 } inst1|inst3~0_combout $end
$var wire 1 ~ inst1|inst1~0_combout $end
$var wire 1 !! inst1|inst7~0_combout $end
$var wire 1 "! inst6|inst5~1_combout $end
$var wire 1 #! inst6|inst6~0_combout $end
$var wire 1 $! inst6|inst6~1_combout $end
$var wire 1 %! inst5|inst8~0_combout $end
$var wire 1 &! inst5|inst1~0_combout $end
$var wire 1 '! inst5|inst16~combout $end
$var wire 1 (! inst5|inst26~combout $end
$upscope $end
$upscope $end
$enddefinitions $end
#0
$dumpvars
0!
0"
0#
1$
0%
0&
0'
0(
1)
1*
1+
1,
1-
1.
0/
10
01
02
13
14
15
16
07
08
09
0:
0;
0<
1=
1>
1?
1@
1A
1B
1C
0D
0E
0F
0G
0H
0I
0J
0K
1L
xM
1N
1O
1P
1Q
1R
1S
1T
1U
0V
0W
0X
0Y
1Z
1[
1\
1]
1^
1_
1`
0a
0b
0c
0d
0e
0f
1g
1h
1i
1j
0k
0l
1m
1n
0o
0p
0q
0r
0s
0t
0u
0v
1w
0x
0y
0z
0{
0|
1}
0~
0!!
0"!
1#!
0$!
0%!
1&!
0'!
1(!
$end
#80000
1!
1y
1o
1v
1%
1G
0(!
1'!
0&!
1%!
0#!
1~
0j
0h
0g
1V
0[
1l
0i
1k
0m
00
12
04
11
0-
1D
06
05
03
#160000
1"
0!
0y
1z
1p
1u
0o
0v
0%
0G
1&
1H
0'!
1&!
1!!
0^
1W
1i
0k
02
14
1E
0*
#240000
1!
1y
1o
1v
1$!
1%
1G
0%!
1#!
1"!
1j
1h
1g
1X
1[
0l
0]
0+
01
1-
1F
16
15
13
#320000
1#
0"
0!
0y
0z
1x
0n
0U
1q
1r
1s
1t
0p
0u
0o
0v
0$!
1|
0%
0G
0&
0H
1'
1(
1J
1I
0C
0>
0#!
0"!
0~
0}
1{
0!!
1^
0R
0W
1Y
0T
0Z
0V
0X
0[
0S
1]
1+
0A
0-
0F
0D
0.
0B
1/
0E
0@
1*
#400000
1!
1y
1o
1v
1%
1G
1%!
0{
1R
0j
0h
0g
0Y
1l
11
0/
06
05
03
1@
#480000
1"
0!
0y
1z
1p
1u
0o
0v
1$!
0|
0%
0G
1&
1H
1'!
0&!
1#!
1[
0i
1k
1S
0]
0+
1A
12
04
1-
#560000
1!
1y
1o
1v
1%
1G
1(!
0'!
1&!
0%!
1}
1j
1h
1g
1T
1Z
0l
1i
0k
1m
10
02
14
01
1.
1B
16
15
13
#640000
0#
0"
0!
0y
0z
0x
1n
1U
0q
0r
0s
0t
0p
0u
0o
0v
0$!
0%
0G
0&
0H
0'
0(
0J
0I
1C
1>
1]
1+
#720000
1!
1y
1o
1v
1%
1G
0(!
1'!
0&!
1%!
0#!
1~
0j
0h
0g
1V
0[
1l
0i
1k
0m
00
12
04
11
0-
1D
06
05
03
#800000
1"
0!
0y
1z
1p
1u
0o
0v
0%
0G
1&
1H
0'!
1&!
1!!
0^
1W
1i
0k
02
14
1E
0*
#880000
1!
1y
1o
1v
1$!
1%
1G
0%!
1#!
1"!
1j
1h
1g
1X
1[
0l
0]
0+
01
1-
1F
16
15
13
#960000
1#
0"
0!
0y
0z
1x
0n
0U
1q
1r
1s
1t
0p
0u
0o
0v
0$!
1|
0%
0G
0&
0H
1'
1(
1J
1I
0C
0>
0#!
0"!
0~
0}
1{
0!!
1^
0R
0W
1Y
0T
0Z
0V
0X
0[
0S
1]
1+
0A
0-
0F
0D
0.
0B
1/
0E
0@
1*
